<svg xmlns="http://www.w3.org/2000/svg" width="20" height="20.03" viewBox="0 0 20 20.03">
  <g id="グループ_4514" data-name="グループ 4514" transform="translate(-691 -1594)">
    <rect id="長方形_2573" data-name="長方形 2573" width="5" height="5" transform="translate(691 1594)" fill="#60b8cf"/>
    <rect id="長方形_2578" data-name="長方形 2578" width="5" height="5" transform="translate(691 1601.273)" fill="#60b8cf"/>
    <rect id="長方形_2581" data-name="長方形 2581" width="5" height="5" transform="translate(691 1609.03)" fill="#60b8cf"/>
    <rect id="長方形_2574" data-name="長方形 2574" width="5" height="5" transform="translate(698.5 1594)" fill="#60b8cf"/>
    <rect id="長方形_2577" data-name="長方形 2577" width="5" height="5" transform="translate(698.5 1601.273)" fill="#60b8cf"/>
    <rect id="長方形_2580" data-name="長方形 2580" width="5" height="5" transform="translate(698.5 1609.03)" fill="#60b8cf"/>
    <rect id="長方形_2575" data-name="長方形 2575" width="5" height="5" transform="translate(706 1594)" fill="#60b8cf"/>
    <rect id="長方形_2576" data-name="長方形 2576" width="5" height="5" transform="translate(706 1601.273)" fill="#60b8cf"/>
    <rect id="長方形_2579" data-name="長方形 2579" width="5" height="5" transform="translate(706 1609.03)" fill="#60b8cf"/>
  </g>
</svg>
