<svg xmlns="http://www.w3.org/2000/svg" width="7.5" height="11.539" viewBox="0 0 7.5 11.539">
  <path id="right001_-_E012" data-name="right001 - E012" d="M-5.15-15.263-6.885-17l4.039-4.039-4.039-4.029L-5.15-26.8.615-21.037Z" transform="translate(0.615 -15.263) rotate(180)" fill="#60b8cf"/>
</svg>
